{
  "AWSTemplateFormatVersion": "2010-09-09",
  "Description": "VPC for AWS Workshop 04",
  "Parameters": {
    "Tag": {
      "Type": "String"
    }
  },
  "Resources": {
    "VPC": {
      "Type": "AWS::EC2::VPC",
      "Properties": {
        "CidrBlock": "10.0.0.0/16",
        "InstanceTenancy": "default",
        "Tags": [
          {
            "Key": "Name",
            "Value": {
              "Ref": "Tag"
            }
          }
        ]
      }
    },
    "InternetGateway": {
      "Type": "AWS::EC2::InternetGateway"
    },
    "VPCGatewayAttachment": {
      "Type": "AWS::EC2::VPCGatewayAttachment",
      "Properties": {
        "VpcId": {
          "Ref": "VPC"
        },
        "InternetGatewayId": {
          "Ref": "InternetGateway"
        }
      }
    },
    "PublicSubnet": {
      "Type": "AWS::EC2::Subnet",
      "Properties": {
        "AvailabilityZone": {
          "Fn::Select": [
            0,
            {
              "Fn::GetAZs": {
                "Ref": "AWS::Region"
              }
            }
          ]
        },
        "VpcId": {
          "Ref": "VPC"
        },
        "CidrBlock": "10.0.0.0/24"
      }
    },
    "PrivateSubnetInternetEnabled": {
      "Type": "AWS::EC2::Subnet",
      "Properties": {
        "AvailabilityZone": {
          "Fn::Select": [
            1,
            {
              "Fn::GetAZs": {
                "Ref": "AWS::Region"
              }
            }
          ]
        },
        "VpcId": {
          "Ref": "VPC"
        },
        "CidrBlock": "10.0.1.0/24"
      }
    },
    "RouteTable": {
      "Type": "AWS::EC2::RouteTable",
      "Properties": {
        "VpcId": {
          "Ref": "VPC"
        }
      }
    },
    "InternetRoute": {
      "Type": "AWS::EC2::Route",
      "Properties": {
        "DestinationCidrBlock": "0.0.0.0/0",
        "GatewayId": {
          "Ref": "InternetGateway"
        },
        "RouteTableId": {
          "Ref": "RouteTable"
        }
      }
    },
    "PublicSubnetRouteTableAssociation": {
      "Type": "AWS::EC2::SubnetRouteTableAssociation",
      "Properties": {
        "RouteTableId": {
          "Ref": "RouteTable"
        },
        "SubnetId": {
          "Ref": "PublicSubnet"
        }
      }
    },
    "EIP": {
      "Type": "AWS::EC2::EIP",
      "Properties": {
        "Domain": "vpc"
      }
    },
    "Nat": {
      "Type": "AWS::EC2::NatGateway",
      "Properties": {
        "AllocationId": {
          "Fn::GetAtt": ["EIP", "AllocationId"]
        },
        "SubnetId": {
          "Ref": "PublicSubnet"
        }
      }
    },
    "NatRouteTable": {
      "Type": "AWS::EC2::RouteTable",
      "Properties": {
        "VpcId": {
          "Ref": "VPC"
        }
      }
    },
    "NatRoute": {
      "Type": "AWS::EC2::Route",
      "Properties": {
        "DestinationCidrBlock": "0.0.0.0/0",
        "NatGatewayId": {
          "Ref": "Nat"
        },
        "RouteTableId": {
          "Ref": "NatRouteTable"
        }
      }
    },
    "PrivateSubnetInternetEnabledRouteTableAssociation": {
      "Type": "AWS::EC2::SubnetRouteTableAssociation",
      "Properties": {
        "RouteTableId": {
          "Ref": "NatRouteTable"
        },
        "SubnetId": {
          "Ref": "PrivateSubnetInternetEnabled"
        }
      }
    }
  },
  "Outputs": {
    "VpcId": {
      "Description": "The VPC ID",
      "Value": {
        "Ref": "VPC"
      }
    },
    "PublicSubnetId": {
      "Description": "The Public Subnet ID",
      "Value": {
        "Ref": "PublicSubnet"
      }
    },
    "PrivateSubnetInternetEnabledId": {
      "Description": "The Private Subnet Internet Enabled ID",
      "Value": {
        "Ref": "PrivateSubnetInternetEnabled"
      }
    }
  }
}
